%YAML 1.1
%TAG !u! tag:unity3d.com,2011:
--- !u!74 &7400000
AnimationClip:
  m_ObjectHideFlags: 0
  m_CorrespondingSourceObject: {fileID: 0}
  m_PrefabInstance: {fileID: 0}
  m_PrefabAsset: {fileID: 0}
  m_Name: Dead
  serializedVersion: 6
  m_Legacy: 0
  m_Compressed: 0
  m_UseHighQualityCurve: 1
  m_RotationCurves: []
  m_CompressedRotationCurves: []
  m_EulerCurves: []
  m_PositionCurves: []
  m_ScaleCurves: []
  m_FloatCurves: []
  m_PPtrCurves:
  - curve:
    - time: 0
      value: {fileID: 21300000, guid: 793fec6fc98d49245b47ddc4b617de51, type: 3}
    - time: 0.083333336
      value: {fileID: 21300000, guid: 33d66bba83646eb4c943ac9f9520bafe, type: 3}
    - time: 0.16666667
      value: {fileID: 21300000, guid: e1addd556ae4b36498a5280f52843132, type: 3}
    - time: 0.25
      value: {fileID: 21300000, guid: e7b901aa26516974084b77dfa2c7a53b, type: 3}
    - time: 0.33333334
      value: {fileID: 21300000, guid: 2df00556c3a51424c83b9cd8583b8ff2, type: 3}
    - time: 0.41666666
      value: {fileID: 21300000, guid: a1164ac92dfa0b94f8aa2f4bbe2e351c, type: 3}
    - time: 0.5
      value: {fileID: 21300000, guid: ef6df5ee13d5ba14f91dabcea2ba1042, type: 3}
    - time: 0.5833333
      value: {fileID: 21300000, guid: 3aa0145eb3cee5b4a8a54dcb2ede20dd, type: 3}
    attribute: m_Sprite
    path: 
    classID: 212
    script: {fileID: 0}
  m_SampleRate: 12
  m_WrapMode: 0
  m_Bounds:
    m_Center: {x: 0, y: 0, z: 0}
    m_Extent: {x: 0, y: 0, z: 0}
  m_ClipBindingConstant:
    genericBindings:
    - serializedVersion: 2
      path: 0
      attribute: 0
      script: {fileID: 0}
      typeID: 212
      customType: 23
      isPPtrCurve: 1
    pptrCurveMapping:
    - {fileID: 21300000, guid: 793fec6fc98d49245b47ddc4b617de51, type: 3}
    - {fileID: 21300000, guid: 33d66bba83646eb4c943ac9f9520bafe, type: 3}
    - {fileID: 21300000, guid: e1addd556ae4b36498a5280f52843132, type: 3}
    - {fileID: 21300000, guid: e7b901aa26516974084b77dfa2c7a53b, type: 3}
    - {fileID: 21300000, guid: 2df00556c3a51424c83b9cd8583b8ff2, type: 3}
    - {fileID: 21300000, guid: a1164ac92dfa0b94f8aa2f4bbe2e351c, type: 3}
    - {fileID: 21300000, guid: ef6df5ee13d5ba14f91dabcea2ba1042, type: 3}
    - {fileID: 21300000, guid: 3aa0145eb3cee5b4a8a54dcb2ede20dd, type: 3}
  m_AnimationClipSettings:
    serializedVersion: 2
    m_AdditiveReferencePoseClip: {fileID: 0}
    m_AdditiveReferencePoseTime: 0
    m_StartTime: 0
    m_StopTime: 0.6666666
    m_OrientationOffsetY: 0
    m_Level: 0
    m_CycleOffset: 0
    m_HasAdditiveReferencePose: 0
    m_LoopTime: 0
    m_LoopBlend: 0
    m_LoopBlendOrientation: 0
    m_LoopBlendPositionY: 0
    m_LoopBlendPositionXZ: 0
    m_KeepOriginalOrientation: 0
    m_KeepOriginalPositionY: 1
    m_KeepOriginalPositionXZ: 0
    m_HeightFromFeet: 0
    m_Mirror: 0
  m_EditorCurves: []
  m_EulerEditorCurves: []
  m_HasGenericRootTransform: 0
  m_HasMotionFloatCurves: 0
  m_Events: []
