%YAML 1.1
%TAG !u! tag:unity3d.com,2011:
--- !u!74 &7400000
AnimationClip:
  m_ObjectHideFlags: 0
  m_CorrespondingSourceObject: {fileID: 0}
  m_PrefabInstance: {fileID: 0}
  m_PrefabAsset: {fileID: 0}
  m_Name: Dead
  serializedVersion: 6
  m_Legacy: 0
  m_Compressed: 0
  m_UseHighQualityCurve: 1
  m_RotationCurves: []
  m_CompressedRotationCurves: []
  m_EulerCurves: []
  m_PositionCurves: []
  m_ScaleCurves: []
  m_FloatCurves: []
  m_PPtrCurves:
  - curve:
    - time: 0
      value: {fileID: 21300000, guid: 3dfa4545426a17040a263628b9634ca7, type: 3}
    - time: 0.083333336
      value: {fileID: 21300000, guid: b59c81593bc7c5448a951362fbba60de, type: 3}
    - time: 0.16666667
      value: {fileID: 21300000, guid: b29eee9403ce42247918fb8782ada858, type: 3}
    - time: 0.25
      value: {fileID: 21300000, guid: 76bf27104ac46e3478aefa2d2414b6d4, type: 3}
    - time: 0.33333334
      value: {fileID: 21300000, guid: 28b474f206a0c1e429f71953aeabb18f, type: 3}
    - time: 0.41666666
      value: {fileID: 21300000, guid: 3ca8cd0aa12a7bd4395909c6e9c8f5b5, type: 3}
    - time: 0.5
      value: {fileID: 21300000, guid: 3d26a401aa8fdab49aabbc3b1ae11dac, type: 3}
    - time: 0.5833333
      value: {fileID: 21300000, guid: 37811caffb1427440a13c6df32f0e819, type: 3}
    - time: 0.6666667
      value: {fileID: 21300000, guid: d2d9e7a5295c9b24886660a5996e60ec, type: 3}
    - time: 0.75
      value: {fileID: 21300000, guid: 2df0680e14e727d4da0d3ddb01cedb88, type: 3}
    - time: 0.8333333
      value: {fileID: 21300000, guid: 0f237710dae4a944bb5b169494fa33b5, type: 3}
    - time: 0.9166667
      value: {fileID: 21300000, guid: 809aa81a1452bdf4aa6200f20ef58754, type: 3}
    - time: 1
      value: {fileID: 21300000, guid: f242d29c9e1ae6846b1f23f3366505f9, type: 3}
    - time: 1.0833334
      value: {fileID: 21300000, guid: 882cb10ea59169d49b1b98716bc40db8, type: 3}
    - time: 1.1666666
      value: {fileID: 21300000, guid: 658c56f1ef78ba7469473aa915d0ae1a, type: 3}
    attribute: m_Sprite
    path: 
    classID: 212
    script: {fileID: 0}
  m_SampleRate: 12
  m_WrapMode: 0
  m_Bounds:
    m_Center: {x: 0, y: 0, z: 0}
    m_Extent: {x: 0, y: 0, z: 0}
  m_ClipBindingConstant:
    genericBindings:
    - serializedVersion: 2
      path: 0
      attribute: 0
      script: {fileID: 0}
      typeID: 212
      customType: 23
      isPPtrCurve: 1
    pptrCurveMapping:
    - {fileID: 21300000, guid: 3dfa4545426a17040a263628b9634ca7, type: 3}
    - {fileID: 21300000, guid: b59c81593bc7c5448a951362fbba60de, type: 3}
    - {fileID: 21300000, guid: b29eee9403ce42247918fb8782ada858, type: 3}
    - {fileID: 21300000, guid: 76bf27104ac46e3478aefa2d2414b6d4, type: 3}
    - {fileID: 21300000, guid: 28b474f206a0c1e429f71953aeabb18f, type: 3}
    - {fileID: 21300000, guid: 3ca8cd0aa12a7bd4395909c6e9c8f5b5, type: 3}
    - {fileID: 21300000, guid: 3d26a401aa8fdab49aabbc3b1ae11dac, type: 3}
    - {fileID: 21300000, guid: 37811caffb1427440a13c6df32f0e819, type: 3}
    - {fileID: 21300000, guid: d2d9e7a5295c9b24886660a5996e60ec, type: 3}
    - {fileID: 21300000, guid: 2df0680e14e727d4da0d3ddb01cedb88, type: 3}
    - {fileID: 21300000, guid: 0f237710dae4a944bb5b169494fa33b5, type: 3}
    - {fileID: 21300000, guid: 809aa81a1452bdf4aa6200f20ef58754, type: 3}
    - {fileID: 21300000, guid: f242d29c9e1ae6846b1f23f3366505f9, type: 3}
    - {fileID: 21300000, guid: 882cb10ea59169d49b1b98716bc40db8, type: 3}
    - {fileID: 21300000, guid: 658c56f1ef78ba7469473aa915d0ae1a, type: 3}
  m_AnimationClipSettings:
    serializedVersion: 2
    m_AdditiveReferencePoseClip: {fileID: 0}
    m_AdditiveReferencePoseTime: 0
    m_StartTime: 0
    m_StopTime: 1.25
    m_OrientationOffsetY: 0
    m_Level: 0
    m_CycleOffset: 0
    m_HasAdditiveReferencePose: 0
    m_LoopTime: 0
    m_LoopBlend: 0
    m_LoopBlendOrientation: 0
    m_LoopBlendPositionY: 0
    m_LoopBlendPositionXZ: 0
    m_KeepOriginalOrientation: 0
    m_KeepOriginalPositionY: 1
    m_KeepOriginalPositionXZ: 0
    m_HeightFromFeet: 0
    m_Mirror: 0
  m_EditorCurves: []
  m_EulerEditorCurves: []
  m_HasGenericRootTransform: 0
  m_HasMotionFloatCurves: 0
  m_Events: []
