%YAML 1.1
%TAG !u! tag:unity3d.com,2011:
--- !u!74 &7400000
AnimationClip:
  m_ObjectHideFlags: 0
  m_CorrespondingSourceObject: {fileID: 0}
  m_PrefabInstance: {fileID: 0}
  m_PrefabAsset: {fileID: 0}
  m_Name: Jump
  serializedVersion: 6
  m_Legacy: 0
  m_Compressed: 0
  m_UseHighQualityCurve: 1
  m_RotationCurves: []
  m_CompressedRotationCurves: []
  m_EulerCurves: []
  m_PositionCurves: []
  m_ScaleCurves: []
  m_FloatCurves: []
  m_PPtrCurves:
  - curve:
    - time: 0
      value: {fileID: 21300000, guid: 332c7b01f27843746a0560c14e2dd27d, type: 3}
    - time: 0.083333336
      value: {fileID: 21300000, guid: ff3448faaac0ab444bf778f7f9799b23, type: 3}
    - time: 0.16666667
      value: {fileID: 21300000, guid: b9ea7d806b012c44b9debbd1b4e7e23c, type: 3}
    - time: 0.25
      value: {fileID: 21300000, guid: 8b1ba7d3d606f074381692fed5eea185, type: 3}
    - time: 0.33333334
      value: {fileID: 21300000, guid: cc549e9e0e2ad5940b3ebb7dfe3d17ed, type: 3}
    - time: 0.41666666
      value: {fileID: 21300000, guid: 9cbbe44e96b38a548b624d9d557d85c8, type: 3}
    - time: 0.5
      value: {fileID: 21300000, guid: 8c7fcacb603062b46a17353da91f804c, type: 3}
    - time: 0.5833333
      value: {fileID: 21300000, guid: 90b7184b991bd3641b3c067cd113e323, type: 3}
    - time: 0.6666667
      value: {fileID: 21300000, guid: f1cda1eb1eac7124886b169cf35aa671, type: 3}
    - time: 0.75
      value: {fileID: 21300000, guid: 89df5527dca1bf944b5bbee94bf1b231, type: 3}
    - time: 0.8333333
      value: {fileID: 21300000, guid: 02c4b2eb85d132f4186d0407c8251764, type: 3}
    - time: 0.9166667
      value: {fileID: 21300000, guid: 856e025eb5115ca4fac194699f26dc03, type: 3}
    - time: 1
      value: {fileID: 21300000, guid: bfde0fff224d896448d61fb689a0493f, type: 3}
    - time: 1.0833334
      value: {fileID: 21300000, guid: 7c9d1aa7984475647b5b55581089ddb5, type: 3}
    - time: 1.1666666
      value: {fileID: 21300000, guid: 2ff1cc20299a9f4468d7ee08c93c9f3b, type: 3}
    attribute: m_Sprite
    path: 
    classID: 212
    script: {fileID: 0}
  m_SampleRate: 12
  m_WrapMode: 0
  m_Bounds:
    m_Center: {x: 0, y: 0, z: 0}
    m_Extent: {x: 0, y: 0, z: 0}
  m_ClipBindingConstant:
    genericBindings:
    - serializedVersion: 2
      path: 0
      attribute: 0
      script: {fileID: 0}
      typeID: 212
      customType: 23
      isPPtrCurve: 1
    pptrCurveMapping:
    - {fileID: 21300000, guid: 332c7b01f27843746a0560c14e2dd27d, type: 3}
    - {fileID: 21300000, guid: ff3448faaac0ab444bf778f7f9799b23, type: 3}
    - {fileID: 21300000, guid: b9ea7d806b012c44b9debbd1b4e7e23c, type: 3}
    - {fileID: 21300000, guid: 8b1ba7d3d606f074381692fed5eea185, type: 3}
    - {fileID: 21300000, guid: cc549e9e0e2ad5940b3ebb7dfe3d17ed, type: 3}
    - {fileID: 21300000, guid: 9cbbe44e96b38a548b624d9d557d85c8, type: 3}
    - {fileID: 21300000, guid: 8c7fcacb603062b46a17353da91f804c, type: 3}
    - {fileID: 21300000, guid: 90b7184b991bd3641b3c067cd113e323, type: 3}
    - {fileID: 21300000, guid: f1cda1eb1eac7124886b169cf35aa671, type: 3}
    - {fileID: 21300000, guid: 89df5527dca1bf944b5bbee94bf1b231, type: 3}
    - {fileID: 21300000, guid: 02c4b2eb85d132f4186d0407c8251764, type: 3}
    - {fileID: 21300000, guid: 856e025eb5115ca4fac194699f26dc03, type: 3}
    - {fileID: 21300000, guid: bfde0fff224d896448d61fb689a0493f, type: 3}
    - {fileID: 21300000, guid: 7c9d1aa7984475647b5b55581089ddb5, type: 3}
    - {fileID: 21300000, guid: 2ff1cc20299a9f4468d7ee08c93c9f3b, type: 3}
  m_AnimationClipSettings:
    serializedVersion: 2
    m_AdditiveReferencePoseClip: {fileID: 0}
    m_AdditiveReferencePoseTime: 0
    m_StartTime: 0
    m_StopTime: 1.25
    m_OrientationOffsetY: 0
    m_Level: 0
    m_CycleOffset: 0
    m_HasAdditiveReferencePose: 0
    m_LoopTime: 1
    m_LoopBlend: 0
    m_LoopBlendOrientation: 0
    m_LoopBlendPositionY: 0
    m_LoopBlendPositionXZ: 0
    m_KeepOriginalOrientation: 0
    m_KeepOriginalPositionY: 1
    m_KeepOriginalPositionXZ: 0
    m_HeightFromFeet: 0
    m_Mirror: 0
  m_EditorCurves: []
  m_EulerEditorCurves: []
  m_HasGenericRootTransform: 0
  m_HasMotionFloatCurves: 0
  m_Events: []
